0.501,0.202,0.202
0.502,0.202,0.202
0.503,0.202,0.202
0.504,0.202,0.202
0.505,0.20266666666666666,0.202
0.506,0.20266666666666666,0.2013333333333333
0.507,0.20266666666666666,0.2013333333333333
0.508,0.20266666666666666,0.2013333333333333
0.509,0.20266666666666666,0.2013333333333333
0.51,0.2033333333333333,0.2013333333333333
0.511,0.2033333333333333,0.2013333333333333
0.512,0.2033333333333333,0.20066666666666666
0.513,0.2033333333333333,0.20066666666666666
0.514,0.204,0.20066666666666666
0.515,0.204,0.20066666666666666
0.516,0.204,0.20066666666666666
0.517,0.204,0.20066666666666666
0.518,0.20466666666666666,0.20066666666666666
0.519,0.20466666666666666,0.2
0.52,0.20466666666666666,0.2
0.521,0.20466666666666666,0.2
0.522,0.20466666666666666,0.2
0.523,0.2053333333333333,0.2
0.524,0.2053333333333333,0.2
0.525,0.2053333333333333,0.1993333333333333
0.526,0.2053333333333333,0.1993333333333333
0.527,0.206,0.1993333333333333
0.528,0.206,0.1993333333333333
0.529,0.206,0.1993333333333333
0.53,0.206,0.1993333333333333
0.531,0.20666666666666667,0.19866666666666666
0.532,0.20666666666666667,0.19866666666666666
0.533,0.20666666666666667,0.19866666666666666
0.534,0.20666666666666667,0.19866666666666666
0.535,0.20733333333333331,0.19866666666666666
0.536,0.20733333333333331,0.19866666666666666
0.537,0.20733333333333331,0.198
0.538,0.20733333333333331,0.198
0.539,0.20733333333333331,0.198
0.54,0.208,0.198
0.541,0.208,0.198
0.542,0.208,0.198
0.543,0.208,0.198
0.544,0.20866666666666667,0.1973333333333333
0.545,0.20866666666666667,0.1973333333333333
0.546,0.20866666666666667,0.1973333333333333
0.547,0.20866666666666667,0.1973333333333333
0.548,0.20933333333333332,0.1973333333333333
0.549,0.20933333333333332,0.1973333333333333
0.55,0.20933333333333332,0.19666666666666666
0.551,0.20933333333333332,0.19666666666666666
0.552,0.21,0.19666666666666666
0.553,0.21,0.19666666666666666
0.554,0.21,0.19666666666666666
0.555,0.21,0.19666666666666666
0.556,0.21066666666666667,0.196
0.557,0.21066666666666667,0.196
0.558,0.21066666666666667,0.196
0.559,0.21066666666666667,0.196
0.56,0.21066666666666667,0.196
0.5609999999999999,0.21133333333333332,0.196
0.562,0.21133333333333332,0.19533333333333333
0.563,0.21133333333333332,0.19533333333333333
0.5640000000000001,0.21133333333333332,0.19533333333333333
0.565,0.212,0.19533333333333333
0.5660000000000001,0.212,0.19533333333333333
0.567,0.212,0.19533333333333333
0.5680000000000001,0.212,0.19533333333333333
0.569,0.21266666666666667,0.19466666666666665
0.5700000000000001,0.21266666666666667,0.19466666666666665
0.571,0.21266666666666667,0.19466666666666665
0.5720000000000001,0.21266666666666667,0.19466666666666665
0.573,0.21333333333333332,0.19466666666666665
0.574,0.21333333333333332,0.19466666666666665
0.575,0.21333333333333332,0.194
0.576,0.21333333333333332,0.194
0.577,0.214,0.194
0.578,0.214,0.194
0.579,0.214,0.194
0.58,0.214,0.194
0.581,0.21466666666666667,0.19333333333333333
0.582,0.21466666666666667,0.19333333333333333
0.583,0.214,0.19333333333333333
0.584,0.214,0.19333333333333333
0.585,0.214,0.19333333333333333
0.586,0.21333333333333332,0.19333333333333333
0.587,0.21333333333333332,0.19266666666666665
0.588,0.21266666666666667,0.19266666666666665
0.589,0.21266666666666667,0.19266666666666665
0.59,0.212,0.19266666666666665
0.591,0.212,0.19266666666666665
0.592,0.212,0.19266666666666665
0.593,0.21133333333333332,0.192
0.594,0.21133333333333332,0.192
0.595,0.21066666666666667,0.192
0.596,0.21066666666666667,0.192
0.597,0.21066666666666667,0.192
0.598,0.21,0.192
0.599,0.21,0.192
0.6,0.20933333333333332,0.19133333333333333