[
    [
        0.1,
        [
            0.5,
            0.3,
            0.7
        ],
        [
            [
                [
                    1
                ],
                0.3
            ],
            [
                [
                    2
                ],
                0.238
            ],
            [
                [
                    1,
                    2,
                    2
                ],
                0.211
            ],
            [
                [
                    1,
                    2,
                    3
                ],
                0.196
            ],
            [
                [
                    1,
                    3,
                    3
                ],
                0.188
            ],
            [
                [
                    2,
                    3,
                    3
                ],
                0.158
            ],
            [
                [
                    3,
                    3,
                    3
                ],
                0.133
            ]
        ]
    ],
    [
        0.11,
        [
            0.5,
            0.3,
            0.7
        ],
        [
            [
                [
                    1
                ],
                0.3
            ],
            [
                [
                    2
                ],
                0.238
            ],
            [
                [
                    1,
                    2,
                    2
                ],
                0.211
            ],
            [
                [
                    1,
                    2,
                    3
                ],
                0.196
            ],
            [
                [
                    1,
                    3,
                    3
                ],
                0.188
            ],
            [
                [
                    2,
                    3,
                    3
                ],
                0.168
            ],
            [
                [
                    3,
                    3,
                    3
                ],
                0.143
            ]
        ]
    ],
    [
        0.12,
        [
            0.5,
            0.3,
            0.7
        ],
        [
            [
                [
                    1
                ],
                0.3
            ],
            [
                [
                    2
                ],
                0.238
            ],
            [
                [
                    1,
                    2,
                    2
                ],
                0.211
            ],
            [
                [
                    1,
                    2,
                    3
                ],
                0.197
            ],
            [
                [
                    1,
                    3,
                    3
                ],
                0.188
            ],
            [
                [
                    2,
                    3,
                    3
                ],
                0.177
            ],
            [
                [
                    3,
                    3,
                    3
                ],
                0.151
            ]
        ]
    ],
    [
        0.13,
        [
            0.5,
            0.3,
            0.7
        ],
        [
            [
                [
                    1
                ],
                0.3
            ],
            [
                [
                    2
                ],
                0.238
            ],
            [
                [
                    1,
                    2,
                    2
                ],
                0.211
            ],
            [
                [
                    1,
                    2,
                    3
                ],
                0.197
            ],
            [
                [
                    1,
                    3,
                    3
                ],
                0.188
            ],
            [
                [
                    2,
                    3,
                    3
                ],
                0.184
            ],
            [
                [
                    3,
                    3,
                    3
                ],
                0.158
            ]
        ]
    ],
    [
        0.14,
        [
            0.5,
            0.3,
            0.7
        ],
        [
            [
                [
                    1
                ],
                0.3
            ],
            [
                [
                    2
                ],
                0.238
            ],
            [
                [
                    1,
                    2,
                    2
                ],
                0.211
            ],
            [
                [
                    1,
                    2,
                    3
                ],
                0.198
            ],
            [
                [
                    2,
                    2,
                    3
                ],
                0.191
            ],
            [
                [
                    2,
                    3,
                    3
                ],
                0.188
            ],
            [
                [
                    3,
                    3,
                    3
                ],
                0.164
            ]
        ]
    ],
    [
        0.15,
        [
            0.5,
            0.3,
            0.7
        ],
        [
            [
                [
                    1
                ],
                0.3
            ],
            [
                [
                    2
                ],
                0.237
            ],
            [
                [
                    2,
                    2,
                    2
                ],
                0.211
            ],
            [
                [
                    1,
                    2,
                    2
                ],
                0.21
            ],
            [
                [
                    1,
                    2,
                    3
                ],
                0.198
            ],
            [
                [
                    2,
                    2,
                    3
                ],
                0.197
            ],
            [
                [
                    2,
                    3,
                    3
                ],
                0.188
            ],
            [
                [
                    3,
                    3,
                    3
                ],
                0.169
            ]
        ]
    ],
    [
        0.16,
        [
            0.5,
            0.3,
            0.7
        ],
        [
            [
                [
                    1
                ],
                0.3
            ],
            [
                [
                    2
                ],
                0.237
            ],
            [
                [
                    2,
                    2,
                    2
                ],
                0.211
            ],
            [
                [
                    1,
                    2,
                    2
                ],
                0.209
            ],
            [
                [
                    2,
                    2,
                    3
                ],
                0.199
            ],
            [
                [
                    2,
                    3,
                    3
                ],
                0.188
            ],
            [
                [
                    3,
                    3,
                    3
                ],
                0.173
            ]
        ]
    ],
    [
        0.17,
        [
            0.5,
            0.3,
            0.7
        ],
        [
            [
                [
                    1
                ],
                0.3
            ],
            [
                [
                    2
                ],
                0.237
            ],
            [
                [
                    2,
                    2,
                    2
                ],
                0.211
            ],
            [
                [
                    2,
                    2,
                    3
                ],
                0.2
            ],
            [
                [
                    2,
                    3,
                    3
                ],
                0.189
            ],
            [
                [
                    3,
                    3,
                    3
                ],
                0.177
            ]
        ]
    ],
    [
        0.18,
        [
            0.5,
            0.3,
            0.7
        ],
        [
            [
                [
                    1
                ],
                0.3
            ],
            [
                [
                    2
                ],
                0.237
            ],
            [
                [
                    2,
                    2,
                    2
                ],
                0.211
            ],
            [
                [
                    2,
                    2,
                    3
                ],
                0.2
            ],
            [
                [
                    2,
                    3,
                    3
                ],
                0.189
            ],
            [
                [
                    3,
                    3,
                    3
                ],
                0.18
            ]
        ]
    ],
    [
        0.19,
        [
            0.5,
            0.3,
            0.7
        ],
        [
            [
                [
                    1
                ],
                0.3
            ],
            [
                [
                    2
                ],
                0.237
            ],
            [
                [
                    2,
                    2,
                    2
                ],
                0.211
            ],
            [
                [
                    2,
                    2,
                    3
                ],
                0.201
            ],
            [
                [
                    2,
                    3,
                    3
                ],
                0.189
            ],
            [
                [
                    3,
                    3,
                    3
                ],
                0.184
            ]
        ]
    ],
    [
        0.2,
        [
            0.5,
            0.3,
            0.7
        ],
        [
            [
                [
                    1
                ],
                0.3
            ],
            [
                [
                    2
                ],
                0.236
            ],
            [
                [
                    2,
                    2,
                    2
                ],
                0.211
            ],
            [
                [
                    2,
                    2,
                    3
                ],
                0.201
            ],
            [
                [
                    2,
                    3,
                    3
                ],
                0.19
            ],
            [
                [
                    3,
                    3,
                    3
                ],
                0.187
            ]
        ]
    ],
    [
        0.21,
        [
            0.5,
            0.3,
            0.7
        ],
        [
            [
                [
                    1
                ],
                0.3
            ],
            [
                [
                    2
                ],
                0.236
            ],
            [
                [
                    2,
                    2,
                    2
                ],
                0.211
            ],
            [
                [
                    2,
                    2,
                    3
                ],
                0.202
            ],
            [
                [
                    2,
                    3,
                    3
                ],
                0.19
            ],
            [
                [
                    3,
                    3,
                    3
                ],
                0.189
            ],
            [
                [
                    3,
                    3,
                    3,
                    3
                ],
                0.102
            ]
        ]
    ],
    [
        0.22,
        [
            0.5,
            0.3,
            0.7
        ],
        [
            [
                [
                    1
                ],
                0.3
            ],
            [
                [
                    2
                ],
                0.236
            ],
            [
                [
                    2,
                    2,
                    2
                ],
                0.211
            ],
            [
                [
                    2,
                    2,
                    3
                ],
                0.203
            ],
            [
                [
                    2,
                    3,
                    3
                ],
                0.192
            ],
            [
                [
                    3,
                    3,
                    3
                ],
                0.191
            ],
            [
                [
                    3,
                    3,
                    3,
                    3,
                    3
                ],
                0.11
            ],
            [
                [
                    3,
                    3,
                    3,
                    3
                ],
                0.108
            ]
        ]
    ],
    [
        0.23,
        [
            0.5,
            0.3,
            0.7
        ],
        [
            [
                [
                    1
                ],
                0.3
            ],
            [
                [
                    2
                ],
                0.235
            ],
            [
                [
                    2,
                    2,
                    2
                ],
                0.211
            ],
            [
                [
                    2,
                    2,
                    3
                ],
                0.203
            ],
            [
                [
                    2,
                    3,
                    3
                ],
                0.194
            ],
            [
                [
                    3,
                    3,
                    3
                ],
                0.191
            ],
            [
                [
                    3,
                    3,
                    3,
                    3
                ],
                0.115
            ]
        ]
    ],
    [
        0.24,
        [
            0.5,
            0.3,
            0.7
        ],
        [
            [
                [
                    1
                ],
                0.3
            ],
            [
                [
                    2
                ],
                0.235
            ],
            [
                [
                    2,
                    2,
                    2
                ],
                0.211
            ],
            [
                [
                    2,
                    2,
                    3
                ],
                0.204
            ],
            [
                [
                    2,
                    3,
                    3
                ],
                0.196
            ],
            [
                [
                    3,
                    3,
                    3
                ],
                0.192
            ],
            [
                [
                    3,
                    3,
                    3,
                    3
                ],
                0.123
            ],
            [
                [
                    3,
                    3,
                    3,
                    3,
                    3,
                    3
                ],
                0.103
            ],
            [
                [
                    3,
                    3,
                    3,
                    3,
                    3,
                    3,
                    3,
                    3
                ],
                0.102
            ]
        ]
    ],
    [
        0.25,
        [
            0.5,
            0.3,
            0.7
        ],
        [
            [
                [
                    1
                ],
                0.3
            ],
            [
                [
                    2
                ],
                0.235
            ],
            [
                [
                    2,
                    2,
                    2
                ],
                0.211
            ],
            [
                [
                    2,
                    2,
                    3
                ],
                0.204
            ],
            [
                [
                    2,
                    3,
                    3
                ],
                0.198
            ],
            [
                [
                    3,
                    3,
                    3
                ],
                0.193
            ],
            [
                [
                    3,
                    3,
                    3,
                    3,
                    3
                ],
                0.13
            ],
            [
                [
                    3,
                    3,
                    3,
                    3
                ],
                0.129
            ],
            [
                [
                    3,
                    3,
                    3,
                    3,
                    3,
                    3,
                    3,
                    3
                ],
                0.108
            ],
            [
                [
                    3,
                    3,
                    3,
                    3,
                    3,
                    3,
                    3
                ],
                0.104
            ]
        ]
    ],
    [
        0.26,
        [
            0.5,
            0.3,
            0.7
        ],
        [
            [
                [
                    1
                ],
                0.3
            ],
            [
                [
                    2
                ],
                0.234
            ],
            [
                [
                    2,
                    2,
                    2
                ],
                0.211
            ],
            [
                [
                    2,
                    2,
                    3
                ],
                0.205
            ],
            [
                [
                    2,
                    3,
                    3
                ],
                0.2
            ],
            [
                [
                    3,
                    3,
                    3
                ],
                0.194
            ],
            [
                [
                    3,
                    3,
                    3,
                    3,
                    3
                ],
                0.137
            ],
            [
                [
                    3,
                    3,
                    3,
                    3
                ],
                0.135
            ],
            [
                [
                    3,
                    3,
                    3,
                    3,
                    3,
                    3,
                    3,
                    3
                ],
                0.113
            ],
            [
                [
                    3,
                    3,
                    3,
                    3,
                    3,
                    3
                ],
                0.11
            ],
            [
                [
                    3,
                    3,
                    3,
                    3,
                    3,
                    3,
                    3
                ],
                0.108
            ],
            [
                [
                    3,
                    3,
                    3,
                    3,
                    3,
                    3,
                    3,
                    3,
                    3
                ],
                0.103
            ]
        ]
    ],
    [
        0.27,
        [
            0.5,
            0.3,
            0.7
        ],
        [
            [
                [
                    1
                ],
                0.3
            ],
            [
                [
                    2
                ],
                0.234
            ],
            [
                [
                    2,
                    2,
                    2
                ],
                0.211
            ],
            [
                [
                    2,
                    2,
                    3
                ],
                0.206
            ],
            [
                [
                    2,
                    3,
                    3
                ],
                0.202
            ],
            [
                [
                    3,
                    3,
                    3
                ],
                0.194
            ],
            [
                [
                    3,
                    3,
                    3,
                    3
                ],
                0.142
            ],
            [
                [
                    3,
                    3,
                    3,
                    3,
                    3,
                    3,
                    3,
                    3
                ],
                0.119
            ],
            [
                [
                    3,
                    3,
                    3,
                    3,
                    3,
                    3,
                    3
                ],
                0.115
            ],
            [
                [
                    3,
                    3,
                    3,
                    3,
                    3,
                    3
                ],
                0.114
            ],
            [
                [
                    3,
                    3,
                    3,
                    3,
                    3,
                    3,
                    3,
                    3,
                    3
                ],
                0.108
            ]
        ]
    ],
    [
        0.28,
        [
            0.5,
            0.3,
            0.7
        ],
        [
            [
                [
                    1
                ],
                0.3
            ],
            [
                [
                    2
                ],
                0.234
            ],
            [
                [
                    2,
                    2,
                    2
                ],
                0.211
            ],
            [
                [
                    2,
                    2,
                    3
                ],
                0.206
            ],
            [
                [
                    2,
                    3,
                    3
                ],
                0.203
            ],
            [
                [
                    3,
                    3,
                    3
                ],
                0.195
            ],
            [
                [
                    3,
                    3,
                    3,
                    3
                ],
                0.15
            ],
            [
                [
                    3,
                    3,
                    3,
                    3,
                    3,
                    3
                ],
                0.125
            ],
            [
                [
                    3,
                    3,
                    3,
                    3,
                    3,
                    3,
                    3,
                    3
                ],
                0.124
            ],
            [
                [
                    3,
                    3,
                    3,
                    3,
                    3,
                    3,
                    3
                ],
                0.119
            ],
            [
                [
                    3,
                    3,
                    3,
                    3,
                    3,
                    3,
                    3,
                    3,
                    3
                ],
                0.113
            ]
        ]
    ],
    [
        0.29,
        [
            0.5,
            0.3,
            0.7
        ],
        [
            [
                [
                    1
                ],
                0.3
            ],
            [
                [
                    2
                ],
                0.233
            ],
            [
                [
                    2,
                    2,
                    2
                ],
                0.211
            ],
            [
                [
                    2,
                    2,
                    3
                ],
                0.207
            ],
            [
                [
                    2,
                    3,
                    3
                ],
                0.205
            ],
            [
                [
                    3,
                    3,
                    3
                ],
                0.196
            ],
            [
                [
                    3,
                    3,
                    3,
                    3
                ],
                0.157
            ],
            [
                [
                    3,
                    3,
                    3,
                    3,
                    3,
                    3
                ],
                0.13
            ],
            [
                [
                    3,
                    3,
                    3,
                    3,
                    3,
                    3,
                    3,
                    3
                ],
                0.129
            ],
            [
                [
                    3,
                    3,
                    3,
                    3,
                    3,
                    3,
                    3
                ],
                0.124
            ],
            [
                [
                    3,
                    3,
                    3,
                    3,
                    3,
                    3,
                    3,
                    3,
                    3
                ],
                0.118
            ]
        ]
    ],
    [
        0.3,
        [
            0.5,
            0.3,
            0.7
        ],
        [
            [
                [
                    1
                ],
                0.3
            ],
            [
                [
                    2
                ],
                0.233
            ],
            [
                [
                    2,
                    2,
                    2
                ],
                0.212
            ],
            [
                [
                    2,
                    2,
                    3
                ],
                0.208
            ],
            [
                [
                    2,
                    3,
                    3
                ],
                0.206
            ],
            [
                [
                    3,
                    3,
                    3
                ],
                0.197
            ],
            [
                [
                    3,
                    3,
                    3,
                    3
                ],
                0.163
            ],
            [
                [
                    3,
                    3,
                    3,
                    3,
                    3,
                    3
                ],
                0.136
            ],
            [
                [
                    3,
                    3,
                    3,
                    3,
                    3,
                    3,
                    3,
                    3
                ],
                0.134
            ],
            [
                [
                    3,
                    3,
                    3,
                    3,
                    3,
                    3,
                    3
                ],
                0.13
            ],
            [
                [
                    3,
                    3,
                    3,
                    3,
                    3,
                    3,
                    3,
                    3,
                    3
                ],
                0.123
            ]
        ]
    ],
    [
        0.31,
        [
            0.5,
            0.3,
            0.7
        ],
        [
            [
                [
                    1
                ],
                0.3
            ],
            [
                [
                    2
                ],
                0.232
            ],
            [
                [
                    2,
                    2,
                    2
                ],
                0.212
            ],
            [
                [
                    2,
                    2,
                    3
                ],
                0.208
            ],
            [
                [
                    2,
                    3,
                    3
                ],
                0.207
            ],
            [
                [
                    3,
                    3,
                    3
                ],
                0.198
            ],
            [
                [
                    3,
                    3,
                    3,
                    3
                ],
                0.171
            ],
            [
                [
                    3,
                    3,
                    3,
                    3,
                    3,
                    3
                ],
                0.142
            ],
            [
                [
                    3,
                    3,
                    3,
                    3,
                    3,
                    3,
                    3,
                    3
                ],
                0.139
            ],
            [
                [
                    3,
                    3,
                    3,
                    3,
                    3,
                    3,
                    3
                ],
                0.136
            ],
            [
                [
                    3,
                    3,
                    3,
                    3,
                    3,
                    3,
                    3,
                    3,
                    3
                ],
                0.128
            ]
        ]
    ],
    [
        0.32,
        [
            0.5,
            0.3,
            0.7
        ],
        [
            [
                [
                    1
                ],
                0.3
            ],
            [
                [
                    2
                ],
                0.232
            ],
            [
                [
                    2,
                    2,
                    2
                ],
                0.212
            ],
            [
                [
                    2,
                    2,
                    3
                ],
                0.209
            ],
            [
                [
                    2,
                    3,
                    3
                ],
                0.208
            ],
            [
                [
                    3,
                    3,
                    3
                ],
                0.199
            ],
            [
                [
                    3,
                    3,
                    3,
                    3
                ],
                0.178
            ],
            [
                [
                    3,
                    3,
                    3,
                    3,
                    3,
                    3
                ],
                0.148
            ],
            [
                [
                    3,
                    3,
                    3,
                    3,
                    3,
                    3,
                    3,
                    3
                ],
                0.144
            ],
            [
                [
                    3,
                    3,
                    3,
                    3,
                    3,
                    3,
                    3
                ],
                0.141
            ],
            [
                [
                    3,
                    3,
                    3,
                    3,
                    3,
                    3,
                    3,
                    3,
                    3
                ],
                0.133
            ]
        ]
    ],
    [
        0.33,
        [
            0.5,
            0.3,
            0.7
        ],
        [
            [
                [
                    1
                ],
                0.3
            ],
            [
                [
                    2
                ],
                0.231
            ],
            [
                [
                    2,
                    2,
                    2
                ],
                0.212
            ],
            [
                [
                    2,
                    2,
                    3
                ],
                0.21
            ],
            [
                [
                    2,
                    3,
                    3
                ],
                0.209
            ],
            [
                [
                    3,
                    3,
                    3
                ],
                0.2
            ],
            [
                [
                    3,
                    3,
                    3,
                    3
                ],
                0.185
            ],
            [
                [
                    3,
                    3,
                    3,
                    3,
                    3,
                    3
                ],
                0.153
            ],
            [
                [
                    3,
                    3,
                    3,
                    3,
                    3,
                    3,
                    3,
                    3
                ],
                0.149
            ],
            [
                [
                    3,
                    3,
                    3,
                    3,
                    3,
                    3,
                    3
                ],
                0.145
            ],
            [
                [
                    3,
                    3,
                    3,
                    3,
                    3,
                    3,
                    3,
                    3,
                    3
                ],
                0.137
            ]
        ]
    ],
    [
        0.34,
        [
            0.5,
            0.3,
            0.7
        ],
        [
            [
                [
                    1
                ],
                0.3
            ],
            [
                [
                    2
                ],
                0.231
            ],
            [
                [
                    2,
                    2,
                    2
                ],
                0.212
            ],
            [
                [
                    2,
                    3,
                    3
                ],
                0.21
            ],
            [
                [
                    3,
                    3,
                    3
                ],
                0.202
            ],
            [
                [
                    3,
                    3,
                    3,
                    3
                ],
                0.192
            ],
            [
                [
                    3,
                    3,
                    3,
                    3,
                    3,
                    3
                ],
                0.159
            ],
            [
                [
                    3,
                    3,
                    3,
                    3,
                    3,
                    3,
                    3,
                    3
                ],
                0.154
            ],
            [
                [
                    3,
                    3,
                    3,
                    3,
                    3,
                    3,
                    3
                ],
                0.15
            ],
            [
                [
                    3,
                    3,
                    3,
                    3,
                    3,
                    3,
                    3,
                    3,
                    3
                ],
                0.142
            ]
        ]
    ],
    [
        0.35,
        [
            0.5,
            0.3,
            0.7
        ],
        [
            [
                [
                    1
                ],
                0.3
            ],
            [
                [
                    2
                ],
                0.23
            ],
            [
                [
                    2,
                    2,
                    2
                ],
                0.213
            ],
            [
                [
                    2,
                    3,
                    3
                ],
                0.211
            ],
            [
                [
                    3,
                    3,
                    3
                ],
                0.203
            ],
            [
                [
                    3,
                    3,
                    3,
                    3
                ],
                0.199
            ],
            [
                [
                    3,
                    3,
                    3,
                    3,
                    3,
                    3
                ],
                0.165
            ],
            [
                [
                    3,
                    3,
                    3,
                    3,
                    3,
                    3,
                    3,
                    3
                ],
                0.159
            ],
            [
                [
                    3,
                    3,
                    3,
                    3,
                    3,
                    3,
                    3
                ],
                0.155
            ],
            [
                [
                    3,
                    3,
                    3,
                    3,
                    3,
                    3,
                    3,
                    3,
                    3
                ],
                0.147
            ]
        ]
    ],
    [
        0.36,
        [
            0.5,
            0.3,
            0.7
        ],
        [
            [
                [
                    1
                ],
                0.3
            ],
            [
                [
                    2
                ],
                0.23
            ],
            [
                [
                    2,
                    2,
                    2
                ],
                0.213
            ],
            [
                [
                    2,
                    3,
                    3
                ],
                0.212
            ],
            [
                [
                    2,
                    3,
                    3,
                    3
                ],
                0.206
            ],
            [
                [
                    3,
                    3,
                    3,
                    3
                ],
                0.204
            ],
            [
                [
                    3,
                    3,
                    3,
                    3,
                    3,
                    3
                ],
                0.17
            ],
            [
                [
                    3,
                    3,
                    3,
                    3,
                    3,
                    3,
                    3,
                    3
                ],
                0.164
            ],
            [
                [
                    3,
                    3,
                    3,
                    3,
                    3,
                    3,
                    3
                ],
                0.16
            ],
            [
                [
                    3,
                    3,
                    3,
                    3,
                    3,
                    3,
                    3,
                    3,
                    3
                ],
                0.152
            ]
        ]
    ],
    [
        0.37,
        [
            0.5,
            0.3,
            0.7
        ],
        [
            [
                [
                    1
                ],
                0.3
            ],
            [
                [
                    2
                ],
                0.229
            ],
            [
                [
                    2,
                    2,
                    3,
                    3,
                    3
                ],
                0.213
            ],
            [
                [
                    2,
                    3,
                    3,
                    3
                ],
                0.212
            ],
            [
                [
                    3,
                    3,
                    3,
                    3
                ],
                0.205
            ],
            [
                [
                    3,
                    3,
                    3,
                    3,
                    3,
                    3
                ],
                0.176
            ],
            [
                [
                    3,
                    3,
                    3,
                    3,
                    3,
                    3,
                    3,
                    3
                ],
                0.169
            ],
            [
                [
                    3,
                    3,
                    3,
                    3,
                    3,
                    3,
                    3
                ],
                0.166
            ],
            [
                [
                    3,
                    3,
                    3,
                    3,
                    3,
                    3,
                    3,
                    3,
                    3
                ],
                0.157
            ]
        ]
    ],
    [
        0.38,
        [
            0.5,
            0.3,
            0.7
        ],
        [
            [
                [
                    1
                ],
                0.3
            ],
            [
                [
                    2
                ],
                0.229
            ],
            [
                [
                    2,
                    3,
                    3
                ],
                0.22
            ],
            [
                [
                    2,
                    3
                ],
                0.219
            ],
            [
                [
                    2,
                    2,
                    3,
                    3
                ],
                0.214
            ],
            [
                [
                    2,
                    3,
                    3,
                    3
                ],
                0.213
            ],
            [
                [
                    3,
                    3,
                    3,
                    3
                ],
                0.206
            ],
            [
                [
                    3,
                    3,
                    3,
                    3,
                    3,
                    3
                ],
                0.181
            ],
            [
                [
                    3,
                    3,
                    3,
                    3,
                    3,
                    3,
                    3,
                    3
                ],
                0.173
            ],
            [
                [
                    3,
                    3,
                    3,
                    3,
                    3,
                    3,
                    3
                ],
                0.171
            ],
            [
                [
                    3,
                    3,
                    3,
                    3,
                    3,
                    3,
                    3,
                    3,
                    3
                ],
                0.161
            ]
        ]
    ],
    [
        0.39,
        [
            0.5,
            0.3,
            0.7
        ],
        [
            [
                [
                    1
                ],
                0.3
            ],
            [
                [
                    2
                ],
                0.228
            ],
            [
                [
                    2,
                    3,
                    3
                ],
                0.227
            ],
            [
                [
                    2,
                    3
                ],
                0.226
            ],
            [
                [
                    2,
                    3,
                    3,
                    3
                ],
                0.214
            ],
            [
                [
                    3,
                    3,
                    3,
                    3
                ],
                0.208
            ],
            [
                [
                    3,
                    3,
                    3,
                    3,
                    3,
                    3
                ],
                0.187
            ],
            [
                [
                    3,
                    3,
                    3,
                    3,
                    3,
                    3,
                    3,
                    3
                ],
                0.178
            ],
            [
                [
                    3,
                    3,
                    3,
                    3,
                    3,
                    3,
                    3
                ],
                0.176
            ],
            [
                [
                    3,
                    3,
                    3,
                    3,
                    3,
                    3,
                    3,
                    3,
                    3
                ],
                0.166
            ]
        ]
    ],
    [
        0.4,
        [
            0.5,
            0.3,
            0.7
        ],
        [
            [
                [
                    1
                ],
                0.3
            ],
            [
                [
                    1,
                    3,
                    3
                ],
                0.238
            ],
            [
                [
                    1,
                    3,
                    3,
                    3
                ],
                0.232
            ],
            [
                [
                    1,
                    3
                ],
                0.231
            ],
            [
                [
                    2,
                    3
                ],
                0.228
            ],
            [
                [
                    2,
                    3,
                    3,
                    3
                ],
                0.214
            ],
            [
                [
                    3,
                    3,
                    3,
                    3
                ],
                0.209
            ],
            [
                [
                    3,
                    3,
                    3,
                    3,
                    3,
                    3
                ],
                0.193
            ],
            [
                [
                    3,
                    3,
                    3,
                    3,
                    3,
                    3,
                    3,
                    3
                ],
                0.182
            ],
            [
                [
                    3,
                    3,
                    3,
                    3,
                    3,
                    3,
                    3
                ],
                0.181
            ],
            [
                [
                    3,
                    3,
                    3,
                    3,
                    3,
                    3,
                    3,
                    3,
                    3
                ],
                0.17
            ]
        ]
    ],
    [
        0.41,
        [
            0.5,
            0.3,
            0.7
        ],
        [
            [
                [
                    1
                ],
                0.3
            ],
            [
                [
                    1,
                    3,
                    3
                ],
                0.241
            ],
            [
                [
                    1,
                    3
                ],
                0.239
            ],
            [
                [
                    2,
                    3
                ],
                0.227
            ],
            [
                [
                    2,
                    3,
                    3,
                    3
                ],
                0.215
            ],
            [
                [
                    3,
                    3,
                    3,
                    3
                ],
                0.21
            ],
            [
                [
                    3,
                    3,
                    3,
                    3,
                    3,
                    3
                ],
                0.199
            ],
            [
                [
                    3,
                    3,
                    3,
                    3,
                    3,
                    3,
                    3,
                    3
                ],
                0.187
            ],
            [
                [
                    3,
                    3,
                    3,
                    3,
                    3,
                    3,
                    3
                ],
                0.185
            ],
            [
                [
                    3,
                    3,
                    3,
                    3,
                    3,
                    3,
                    3,
                    3,
                    3
                ],
                0.176
            ]
        ]
    ],
    [
        0.42,
        [
            0.5,
            0.3,
            0.7
        ],
        [
            [
                [
                    1
                ],
                0.3
            ],
            [
                [
                    1,
                    3
                ],
                0.241
            ],
            [
                [
                    2,
                    3
                ],
                0.226
            ],
            [
                [
                    3,
                    3
                ],
                0.216
            ],
            [
                [
                    2,
                    3,
                    3,
                    3
                ],
                0.215
            ],
            [
                [
                    3,
                    3,
                    3,
                    3
                ],
                0.212
            ],
            [
                [
                    3,
                    3,
                    3,
                    3,
                    3,
                    3
                ],
                0.205
            ],
            [
                [
                    3,
                    3,
                    3,
                    3,
                    3,
                    3,
                    3,
                    3
                ],
                0.191
            ],
            [
                [
                    3,
                    3,
                    3,
                    3,
                    3,
                    3,
                    3
                ],
                0.19
            ],
            [
                [
                    3,
                    3,
                    3,
                    3,
                    3,
                    3,
                    3,
                    3,
                    3
                ],
                0.181
            ]
        ]
    ],
    [
        0.43,
        [
            0.5,
            0.3,
            0.7
        ],
        [
            [
                [
                    1
                ],
                0.3
            ],
            [
                [
                    1,
                    3
                ],
                0.239
            ],
            [
                [
                    2,
                    3
                ],
                0.226
            ],
            [
                [
                    2,
                    3,
                    3,
                    3
                ],
                0.216
            ],
            [
                [
                    2,
                    3,
                    3,
                    3,
                    3,
                    3
                ],
                0.214
            ],
            [
                [
                    3,
                    3,
                    3,
                    3,
                    3,
                    3
                ],
                0.213
            ],
            [
                [
                    2,
                    3,
                    3,
                    3,
                    3,
                    3,
                    3,
                    3
                ],
                0.196
            ],
            [
                [
                    3,
                    3,
                    3,
                    3,
                    3,
                    3,
                    3
                ],
                0.195
            ],
            [
                [
                    3,
                    3,
                    3,
                    3,
                    3,
                    3,
                    3,
                    3,
                    3
                ],
                0.187
            ]
        ]
    ],
    [
        0.44,
        [
            0.5,
            0.3,
            0.7
        ],
        [
            [
                [
                    1
                ],
                0.3
            ],
            [
                [
                    1,
                    2,
                    2
                ],
                0.24
            ],
            [
                [
                    1,
                    2,
                    2,
                    3
                ],
                0.236
            ],
            [
                [
                    1,
                    2,
                    3,
                    3
                ],
                0.234
            ],
            [
                [
                    1,
                    3,
                    3,
                    3
                ],
                0.228
            ],
            [
                [
                    1,
                    3
                ],
                0.226
            ],
            [
                [
                    2,
                    3,
                    3,
                    3
                ],
                0.225
            ],
            [
                [
                    2,
                    3,
                    3,
                    3,
                    3,
                    3
                ],
                0.217
            ],
            [
                [
                    3,
                    3,
                    3,
                    3,
                    3,
                    3
                ],
                0.214
            ],
            [
                [
                    2,
                    2,
                    3,
                    3,
                    3,
                    3,
                    3,
                    3
                ],
                0.2
            ],
            [
                [
                    2,
                    3,
                    3,
                    3,
                    3,
                    3,
                    3
                ],
                0.199
            ],
            [
                [
                    3,
                    3,
                    3,
                    3,
                    3,
                    3,
                    3
                ],
                0.197
            ],
            [
                [
                    3,
                    3,
                    3,
                    3,
                    3,
                    3,
                    3,
                    3,
                    3
                ],
                0.192
            ]
        ]
    ],
    [
        0.45,
        [
            0.5,
            0.3,
            0.7
        ],
        [
            [
                [
                    1
                ],
                0.3
            ],
            [
                [
                    1,
                    2,
                    2
                ],
                0.24
            ],
            [
                [
                    1,
                    2,
                    2,
                    3
                ],
                0.234
            ],
            [
                [
                    1,
                    2,
                    3,
                    3
                ],
                0.23
            ],
            [
                [
                    2,
                    2,
                    3,
                    3
                ],
                0.224
            ],
            [
                [
                    2,
                    3,
                    3,
                    3
                ],
                0.222
            ],
            [
                [
                    3,
                    3,
                    3,
                    3
                ],
                0.218
            ],
            [
                [
                    2,
                    3,
                    3,
                    3,
                    3,
                    3
                ],
                0.217
            ],
            [
                [
                    3,
                    3,
                    3,
                    3,
                    3,
                    3
                ],
                0.216
            ],
            [
                [
                    2,
                    2,
                    3,
                    3,
                    3,
                    3,
                    3,
                    3
                ],
                0.204
            ],
            [
                [
                    2,
                    3,
                    3,
                    3,
                    3,
                    3,
                    3
                ],
                0.203
            ],
            [
                [
                    3,
                    3,
                    3,
                    3,
                    3,
                    3,
                    3
                ],
                0.2
            ],
            [
                [
                    2,
                    3,
                    3,
                    3,
                    3,
                    3,
                    3,
                    3,
                    3
                ],
                0.197
            ],
            [
                [
                    3,
                    3,
                    3,
                    3,
                    3,
                    3,
                    3,
                    3,
                    3
                ],
                0.196
            ]
        ]
    ],
    [
        0.46,
        [
            0.5,
            0.3,
            0.7
        ],
        [
            [
                [
                    1
                ],
                0.3
            ],
            [
                [
                    1,
                    2,
                    2
                ],
                0.239
            ],
            [
                [
                    1,
                    2,
                    2,
                    3
                ],
                0.232
            ],
            [
                [
                    1,
                    2,
                    3,
                    3
                ],
                0.225
            ],
            [
                [
                    2,
                    2,
                    3,
                    3
                ],
                0.224
            ],
            [
                [
                    2,
                    3,
                    3,
                    3
                ],
                0.22
            ],
            [
                [
                    2,
                    3,
                    3,
                    3,
                    3,
                    3
                ],
                0.218
            ],
            [
                [
                    3,
                    3,
                    3,
                    3,
                    3,
                    3
                ],
                0.217
            ],
            [
                [
                    2,
                    2,
                    3,
                    3,
                    3,
                    3,
                    3,
                    3
                ],
                0.208
            ],
            [
                [
                    2,
                    3,
                    3,
                    3,
                    3,
                    3,
                    3
                ],
                0.207
            ],
            [
                [
                    3,
                    3,
                    3,
                    3,
                    3,
                    3,
                    3
                ],
                0.204
            ],
            [
                [
                    2,
                    3,
                    3,
                    3,
                    3,
                    3,
                    3,
                    3,
                    3
                ],
                0.202
            ],
            [
                [
                    3,
                    3,
                    3,
                    3,
                    3,
                    3,
                    3,
                    3,
                    3
                ],
                0.2
            ]
        ]
    ],
    [
        0.47,
        [
            0.5,
            0.3,
            0.7
        ],
        [
            [
                [
                    1
                ],
                0.3
            ],
            [
                [
                    1,
                    2,
                    2
                ],
                0.236
            ],
            [
                [
                    1,
                    2,
                    2,
                    3
                ],
                0.229
            ],
            [
                [
                    2,
                    2,
                    3,
                    3
                ],
                0.223
            ],
            [
                [
                    2,
                    3,
                    3,
                    3,
                    3,
                    3
                ],
                0.219
            ],
            [
                [
                    3,
                    3,
                    3,
                    3,
                    3,
                    3
                ],
                0.218
            ],
            [
                [
                    2,
                    3,
                    3,
                    3,
                    3,
                    3,
                    3
                ],
                0.211
            ],
            [
                [
                    3,
                    3,
                    3,
                    3,
                    3,
                    3,
                    3
                ],
                0.208
            ],
            [
                [
                    2,
                    3,
                    3,
                    3,
                    3,
                    3,
                    3,
                    3,
                    3
                ],
                0.207
            ],
            [
                [
                    3,
                    3,
                    3,
                    3,
                    3,
                    3,
                    3,
                    3,
                    3
                ],
                0.205
            ]
        ]
    ],
    [
        0.48,
        [
            0.5,
            0.3,
            0.7
        ],
        [
            [
                [
                    1
                ],
                0.3
            ],
            [
                [
                    1,
                    2,
                    2
                ],
                0.232
            ],
            [
                [
                    1,
                    2,
                    2,
                    3
                ],
                0.227
            ],
            [
                [
                    2,
                    2,
                    2,
                    3
                ],
                0.223
            ],
            [
                [
                    2,
                    2,
                    3,
                    3
                ],
                0.221
            ],
            [
                [
                    2,
                    2,
                    3,
                    3,
                    3,
                    3
                ],
                0.22
            ],
            [
                [
                    2,
                    3,
                    3,
                    3,
                    3,
                    3
                ],
                0.219
            ],
            [
                [
                    3,
                    3,
                    3,
                    3,
                    3,
                    3
                ],
                0.218
            ],
            [
                [
                    2,
                    3,
                    3,
                    3,
                    3,
                    3,
                    3
                ],
                0.215
            ],
            [
                [
                    2,
                    3,
                    3,
                    3,
                    3,
                    3,
                    3,
                    3,
                    3
                ],
                0.212
            ],
            [
                [
                    3,
                    3,
                    3,
                    3,
                    3,
                    3,
                    3,
                    3,
                    3
                ],
                0.21
            ]
        ]
    ],
    [
        0.49,
        [
            0.5,
            0.3,
            0.7
        ],
        [
            [
                [
                    1
                ],
                0.3
            ],
            [
                [
                    1,
                    2,
                    2
                ],
                0.227
            ],
            [
                [
                    1,
                    2,
                    2,
                    3
                ],
                0.224
            ],
            [
                [
                    2,
                    2,
                    2,
                    3
                ],
                0.222
            ],
            [
                [
                    2,
                    3,
                    3,
                    3,
                    3,
                    3
                ],
                0.22
            ],
            [
                [
                    3,
                    3,
                    3,
                    3,
                    3,
                    3
                ],
                0.219
            ],
            [
                [
                    2,
                    3,
                    3,
                    3,
                    3,
                    3,
                    3
                ],
                0.218
            ],
            [
                [
                    2,
                    3,
                    3,
                    3,
                    3,
                    3,
                    3,
                    3,
                    3
                ],
                0.217
            ],
            [
                [
                    3,
                    3,
                    3,
                    3,
                    3,
                    3,
                    3,
                    3,
                    3
                ],
                0.216
            ]
        ]
    ],
    [
        0.5,
        [
            0.5,
            0.3,
            0.7
        ],
        [
            [
                [
                    1
                ],
                0.3
            ],
            [
                [
                    3,
                    3,
                    3,
                    3,
                    3,
                    3,
                    3,
                    3,
                    3
                ],
                0.221
            ]
        ]
    ]
]